[
  {
    "line": 20,
    "elements": [
      {
        "BDD_TESTRUN_UUID": "2b97aaf1-ea93-40eb-9028-b911fdb809f1",
        "line": 31,
        "name": "Register User Valid",
        "description": "",
        "id": "register-user;register-user-valid;;2",
        "type": "scenario",
        "keyword": "Scenario Outline",
        "steps": [
          {
            "result": {
              "duration": 44485284042,
              "status": "passed"
            },
            "line": 24,
            "name": "User navigate to website ShopDemoQA for register",
            "match": {
              "location": "Register.User_navigate_to_website_ShopDemoQA_for_register()"
            },
            "keyword": "Given ",
            "BDD_STEP_UUID": "4fd3c18b-377b-4c8e-8cad-ef6b0cb33e02"
          },
          {
            "result": {
              "duration": 3161539166,
              "status": "passed"
            },
            "line": 25,
            "name": "User click button my account button for register",
            "match": {
              "location": "Register.User_click_button_my_account_button_for_register()"
            },
            "keyword": "When ",
            "BDD_STEP_UUID": "da06f4b1-068d-4ddb-a255-77ee0ae49db3"
          },
          {
            "result": {
              "duration": 5820913667,
              "status": "passed"
            },
            "line": 26,
            "name": "User input form register EpjaIrbb+p10LdZ2si7Guw\u003d\u003d",
            "match": {
              "arguments": [
                {
                  "val": "EpjaIrbb+p10LdZ2si7Guw\u003d\u003d",
                  "offset": 25
                }
              ],
              "location": "Register.User_input_form_register(String)"
            },
            "keyword": "And ",
            "BDD_STEP_UUID": "3299096e-f39f-4eb1-af04-0b5ed7b62971"
          },
          {
            "result": {
              "duration": 4666257417,
              "status": "passed"
            },
            "line": 27,
            "name": "User click button register",
            "match": {
              "location": "Register.User_click_button_register()"
            },
            "keyword": "And ",
            "BDD_STEP_UUID": "459fb14a-284e-40b2-842e-0cadc19427fc"
          }
        ],
        "tags": [
          {
            "name": "@tag"
          },
          {
            "name": "@Valid"
          }
        ]
      }
    ],
    "name": "Register User",
    "description": "",
    "id": "register-user",
    "keyword": "Feature",
    "uri": "/Users/ddbqa/git/22072022/btechtraining/Include/features/UserRegister.feature",
    "tags": [
      {
        "name": "@tag",
        "type": "Tag",
        "location": {
          "line": 19,
          "column": 1
        }
      }
    ]
  }
]